%YAML 1.1
%TAG !u! tag:unity3d.com,2011:
--- !u!114 &1
MonoBehaviour:
  m_ObjectHideFlags: 53
  m_CorrespondingSourceObject: {fileID: 0}
  m_PrefabInstance: {fileID: 0}
  m_PrefabAsset: {fileID: 0}
  m_GameObject: {fileID: 0}
  m_Enabled: 1
  m_EditorHideFlags: 0
  m_Script: {fileID: 13954, guid: 0000000000000000e000000000000000, type: 0}
  m_Name: 
  m_EditorClassIdentifier: 
  m_SnapEnabled: 1
  m_SnapSettings:
    m_SnapValue: {x: 0.25, y: 0.25, z: 0.25}
    m_SnapMultiplier: {x: 2048, y: 2048, z: 2048}
    m_Rotation: 0.15
    m_Scale: 0.15
