%YAML 1.1
%TAG !u! tag:unity3d.com,2011:
--- !u!114 &11400000
MonoBehaviour:
  m_ObjectHideFlags: 0
  m_CorrespondingSourceObject: {fileID: 0}
  m_PrefabInstance: {fileID: 0}
  m_PrefabAsset: {fileID: 0}
  m_GameObject: {fileID: 0}
  m_Enabled: 1
  m_EditorHideFlags: 0
  m_Script: {fileID: 11500000, guid: 95e66c6366d904e98bc83428217d4fd7, type: 3}
  m_Name: CapsuleMovement
  m_EditorClassIdentifier: 
  _data:
    _json: '{"graph":{"variables":{"Kind":"Flow","collection":{"$content":[],"$version":"A"},"$version":"A"},"controlInputDefinitions":[],"controlOutputDefinitions":[],"valueInputDefinitions":[],"valueOutputDefinitions":[],"title":"TransformMovement","summary":null,"pan":{"x":87.08905,"y":108.5777},"zoom":0.9,"elements":[{"coroutine":false,"defaultValues":{},"position":{"x":-212.0,"y":-102.0},"guid":"a45f344a-9de2-41e9-8374-8603219cc51a","$version":"A","$type":"Unity.VisualScripting.Update","$id":"9"},{"chainable":false,"parameterNames":["vector","maxLength"],"member":{"name":"ClampMagnitude","parameterTypes":["UnityEngine.Vector3","System.Single"],"targetType":"UnityEngine.Vector3","targetTypeName":"UnityEngine.Vector3","$version":"A"},"defaultValues":{"%vector":{"x":0.0,"y":0.0,"z":0.0,"$type":"UnityEngine.Vector3"},"%maxLength":{"$content":1.0,"$type":"System.Single"}},"position":{"x":63.0,"y":-100.0},"guid":"3ce49873-2508-4f61-9208-6aeaa400b8ad","$version":"A","$type":"Unity.VisualScripting.InvokeMember","$id":"11"},{"specifyFallback":false,"kind":"Object","defaultValues":{"name":{"$content":"MoveAxis","$type":"System.String"},"object":null},"position":{"x":-228.0,"y":68.0},"guid":"d353a28c-96d2-499f-b29f-23507aeaed55","$version":"A","$type":"Unity.VisualScripting.GetVariable","$id":"15"},{"specifyFallback":false,"kind":"Object","defaultValues":{"name":{"$content":"MoveSpeed","$type":"System.String"},"object":null},"position":{"x":1.0,"y":71.0},"guid":"7bb41e2f-5e99-4f82-96b3-7d074e573d03","$version":"A","$type":"Unity.VisualScripting.GetVariable","$id":"17"},{"chainable":false,"parameterNames":["translation"],"member":{"name":"Translate","parameterTypes":["UnityEngine.Vector3"],"targetType":"UnityEngine.Transform","targetTypeName":"UnityEngine.Transform","$version":"A"},"defaultValues":{"target":null,"%translation":{"x":0.0,"y":0.0,"z":0.0,"$type":"UnityEngine.Vector3"}},"position":{"x":417.0,"y":-101.0},"guid":"45a5f6c6-bfe8-49f3-b08f-79e14f2ad8b9","$version":"A","$type":"Unity.VisualScripting.InvokeMember","$id":"19"},{"defaultValues":{},"position":{"x":297.0,"y":66.0},"guid":"bd4f75fe-17e9-42ab-9fd3-bf072b5442e7","$version":"A","$type":"Unity.VisualScripting.GenericMultiply","$id":"23"},{"defaultValues":{},"position":{"x":171.0,"y":240.0},"guid":"e0a63d70-112a-47ba-8d4f-0d8089dba913","$version":"A","$type":"Unity.VisualScripting.GenericMultiply","$id":"25"},{"member":{"name":"deltaTime","parameterTypes":null,"targetType":"UnityEngine.Time","targetTypeName":"UnityEngine.Time","$version":"A"},"defaultValues":{},"position":{"x":-228.0,"y":261.0},"guid":"effd1599-b6ee-481e-922f-c3045f36356b","$version":"A","$type":"Unity.VisualScripting.GetMember","$id":"27"},{"sourceUnit":{"$ref":"9"},"sourceKey":"trigger","destinationUnit":{"$ref":"11"},"destinationKey":"enter","guid":"0f8ca539-c558-46e6-9119-f8ba6fbd6436","$type":"Unity.VisualScripting.ControlConnection"},{"sourceUnit":{"$ref":"11"},"sourceKey":"exit","destinationUnit":{"$ref":"19"},"destinationKey":"enter","guid":"88f8376d-bbc9-4c99-8ae6-f691d2e8e8ea","$type":"Unity.VisualScripting.ControlConnection"},{"sourceUnit":{"$ref":"15"},"sourceKey":"value","destinationUnit":{"$ref":"11"},"destinationKey":"%vector","guid":"bebd412a-2b44-48d9-959a-8651c5625bb5","$type":"Unity.VisualScripting.ValueConnection"},{"sourceUnit":{"$ref":"11"},"sourceKey":"result","destinationUnit":{"$ref":"23"},"destinationKey":"a","guid":"67b3d136-01a5-474f-a31e-e5e07fa73a43","$type":"Unity.VisualScripting.ValueConnection"},{"sourceUnit":{"$ref":"23"},"sourceKey":"product","destinationUnit":{"$ref":"19"},"destinationKey":"%translation","guid":"ef0a304f-73bd-41b3-899a-daa1bb73c237","$type":"Unity.VisualScripting.ValueConnection"},{"sourceUnit":{"$ref":"17"},"sourceKey":"value","destinationUnit":{"$ref":"25"},"destinationKey":"a","guid":"7f166dcd-4167-400a-9ae2-66332a16fe12","$type":"Unity.VisualScripting.ValueConnection"},{"sourceUnit":{"$ref":"25"},"sourceKey":"product","destinationUnit":{"$ref":"23"},"destinationKey":"b","guid":"5764fb9c-2b4a-4b40-ac61-aea356272c55","$type":"Unity.VisualScripting.ValueConnection"},{"sourceUnit":{"$ref":"27"},"sourceKey":"value","destinationUnit":{"$ref":"25"},"destinationKey":"b","guid":"08075554-472e-42dc-baca-a540cd6ca470","$type":"Unity.VisualScripting.ValueConnection"}],"$version":"A"}}'
    _objectReferences: []
